C:\Users\bartb\Downloads\restFirst\src\main\java\nl\utwente\di\first\client\TestHelloClient.java
C:\Users\bartb\Downloads\restFirst\src\main\java\nl\utwente\di\first\client\TestHelloClient1.java
C:\Users\bartb\Downloads\restFirst\src\main\java\nl\utwente\di\first\Hello.java
